<svg xmlns="http://www.w3.org/2000/svg" width="7.06mm" height="6.96mm" viewBox="0 0 20.02 19.73">
  <defs>
    <style>
    </style>
  </defs>
  <title>loading_arrows</title>
  <g>
    <g>
      <path class="a" d="M11.78,18.69A9,9,0,0,1,4.44,2.92"/>
      <polyline class="a" points="0.23 3.84 4.49 2.74 4.05 7.36"/>
    </g>
    <g>
      <path class="a" d="M8.24,1a9,9,0,0,1,7.34,15.77"/>
      <polyline class="a" points="19.8 15.9 15.54 17 15.97 12.38"/>
    </g>
  </g>
</svg>
